INDEX VERSION 1.131+C:\Users\derry\eclipse-workspace\.metadata\.plugins\org.eclipse.jdt.core
14682029.index
2773834657.index
2702756431.index
1455593261.index
1518219961.index
212823042.index
3523662158.index
2755606740.index
3886402465.index
2511617568.index
2074631316.index
1084624933.index
326805980.index
7862032.index
3013057017.index
2301944148.index
2745575786.index
398058497.index
984225034.index
2380175872.index
3993263799.index
1988513050.index
4289135590.index
3558756864.index
1622776731.index
909818396.index
2360666022.index
778716030.index
1666702431.index
1306806701.index
3005543447.index
3854475047.index
728296283.index
1297823457.index
1870878615.index
